{
    "headers":{},
    "body": {
        "assignment": {
            "id": 3553511,
            "name": "1.3. Input/print: Hello, Harry!",
            "type": "input_output"
        },
        "classroom": {
            "id": 140656,
            "name": "100 Days of Code V2 - GroupA",
            "webhook_secret": "81bb5da4-de25-49bf-bbc8-de8d4d038676"
        },
        "submission": {
            "id": 7399304,
            "status": "complete",
            "time_submitted": "2019-07-29T09:39:52.669Z",
            "time_created": "2019-07-29T08:38:52.000Z",
            "teacher_url": "https://repl.it/teacher/submissions/7399304",
            "student_url": "https://repl.it/student/submissions/7399304",
            "files": [
                {
                    "name": "main.py",
                    "content": "# Read a string:\na = input()\n# Print a string:\nprint(\"Hello, \" +a + \"!\")\n"
                }
            ]
        },
        "student": {
            "id": 2047479,
            "first_name": "John",
            "last_name": "Doe",
            "email": "john@doe.com"
        },
        "event_name": "student_submits_assignment"
    }
}